<?xml version="1.0" encoding="utf-8"?>
<svg viewBox="0 0 3840 2160" width="3840px" height="2160px" xmlns="http://www.w3.org/2000/svg" xmlns:bx="https://boxy-svg.com">
  <defs>
    <linearGradient gradientUnits="userSpaceOnUse" x1="1917.304" y1="1554.113" x2="1917.304" y2="2184.399" id="gradient-0" gradientTransform="matrix(1.054299, 0, 0, 1, -59.712162, 159.329102)">
      <stop offset="0" style="stop-color: rgb(140, 3, 198);"/>
      <stop offset="1" style="stop-color: rgb(73, 0, 105);"/>
    </linearGradient>
  </defs>
  <rect width="3840" height="2160" style="fill: rgb(148, 0, 211); pointer-events: none;"/>
  <path style="stroke: rgb(0, 0, 0); fill: url(#gradient-0);" d="M -64 2219.238 C 470.423 1672.574 3033.034 1489.739 3987.398 2237.394 L 3987.399 2343.728 L -48.983 2302.899">
    <title>land</title>
  </path>
  <g>
    <title>moon and stars</title>
    <path style="fill: rgb(216, 216, 216);" transform="matrix(-4.75089, 2.38662, 2.386621, 4.75089, 3417.622314, -1901.508789)" d="M 695.292 153.75 A 39.5 39.5 0 1 1 695.292 193.25 A 28.904 28.904 0 1 0 695.292 153.75 Z" bx:shape="crescent 729.5 173.5 39.5 300 0.7 1@61852e5f"/>
    <path d="M 615.696 -177.216 L 636.321 -117.878 L 699.126 -116.598 L 649.068 -78.645 L 667.258 -18.516 L 615.696 -54.398 L 564.134 -18.516 L 582.324 -78.645 L 532.266 -116.598 L 595.071 -117.878 Z" style="fill: rgb(216, 216, 216); stroke: rgb(0, 0, 0);" transform="matrix(0.963058, -0.269295, 0.269295, 0.963058, 2729.894495, 926.482147)" bx:shape="star 615.696 -89.489 87.723 87.727 0.4 5 1@544e5b01"/>
    <path d="M 615.696 -204.851 L 642.818 -126.821 L 725.405 -125.138 L 659.58 -75.229 L 683.5 3.841 L 615.696 -43.344 L 547.892 3.841 L 571.812 -75.229 L 505.987 -125.138 L 588.574 -126.821 Z" style="fill: rgb(216, 216, 216); stroke: rgb(0, 0, 0);" transform="matrix(0.460257, -0.887786, 0.887786, 0.460257, 2633.824534, 1010.412393)" bx:shape="star 615.696 -89.489 115.355 115.362 0.4 5 1@36b5466e"/>
    <path d="M 615.696 -170.215 L 634.675 -115.612 L 692.466 -114.435 L 646.404 -79.511 L 663.143 -24.18 L 615.696 -57.199 L 568.249 -24.18 L 584.988 -79.511 L 538.926 -114.435 L 596.717 -115.612 Z" style="fill: rgb(216, 216, 216); stroke: rgb(0, 0, 0);" transform="matrix(0.902285, 0.43114, -0.43114, 0.902285, 2243.54533, 930.933569)" bx:shape="star 615.696 -89.489 80.721 80.726 0.4 5 1@890d2ee8"/>
    <path d="M 615.696 -189.905 L 639.304 -121.984 L 711.192 -120.519 L 653.894 -77.077 L 674.716 -8.251 L 615.696 -49.323 L 556.676 -8.251 L 577.498 -77.077 L 520.2 -120.519 L 592.088 -121.984 Z" style="fill: rgb(216, 216, 216); stroke: rgb(0, 0, 0);" transform="matrix(0.902285, 0.43114, -0.43114, 0.902285, 325.792004, 201.269873)" bx:shape="star 615.696 -89.489 100.41 100.416 0.4 5 1@56b35382"/>
    <path d="M 615.696 -204.851 L 642.818 -126.821 L 725.405 -125.138 L 659.58 -75.229 L 683.5 3.841 L 615.696 -43.344 L 547.892 3.841 L 571.812 -75.229 L 505.987 -125.138 L 588.574 -126.821 Z" style="fill: rgb(216, 216, 216); stroke: rgb(0, 0, 0);" transform="matrix(0.460257, -0.887786, 0.887786, 0.460257, 749.396739, 1519.012002)" bx:shape="star 615.696 -89.489 115.355 115.362 0.4 5 1@36b5466e"/>
    <path d="M 615.696 -177.216 L 636.321 -117.878 L 699.126 -116.598 L 649.068 -78.645 L 667.258 -18.516 L 615.696 -54.398 L 564.134 -18.516 L 582.324 -78.645 L 532.266 -116.598 L 595.071 -117.878 Z" style="fill: rgb(216, 216, 216); stroke: rgb(0, 0, 0);" transform="matrix(0.963058, -0.269295, 0.269295, 0.963058, -152.171407, 1558.97171)" bx:shape="star 615.696 -89.489 87.723 87.727 0.4 5 1@544e5b01"/>
    <path d="M 615.696 -204.851 L 642.818 -126.821 L 725.405 -125.138 L 659.58 -75.229 L 683.5 3.841 L 615.696 -43.344 L 547.892 3.841 L 571.812 -75.229 L 505.987 -125.138 L 588.574 -126.821 Z" style="fill: rgb(216, 216, 216); stroke: rgb(0, 0, 0);" transform="matrix(0.460257, -0.887786, 0.887786, 0.460257, 3422.806468, 2105.858193)" bx:shape="star 615.696 -89.489 115.355 115.362 0.4 5 1@36b5466e"/>
    <path d="M 615.696 -170.215 L 634.675 -115.612 L 692.466 -114.435 L 646.404 -79.511 L 663.143 -24.18 L 615.696 -57.199 L 568.249 -24.18 L 584.988 -79.511 L 538.926 -114.435 L 596.717 -115.612 Z" style="fill: rgb(216, 216, 216); stroke: rgb(0, 0, 0);" transform="matrix(0.902285, 0.43114, -0.43114, 0.902285, 1273.525433, 240.930273)" bx:shape="star 615.696 -89.489 80.721 80.726 0.4 5 1@890d2ee8"/>
  </g>
  <g id="layer1" transform="matrix(3.435627, 0, 0, 3.435627, 979.194702, 1235.774414)" style="">
    <path id="path2566" d="M 194.813 -141.157 C 194.47 -141.16 194.152 -141.125 193.859 -141.05 C 193.383 -140.928 192.878 -140.714 192.344 -140.414 C 182.297 -134.771 162.574 -98.83 159.752 -79.751 C 146.782 -74.834 134.986 -67.924 125.019 -59.698 C 107.085 -66.793 66.098 -67.684 56.188 -61.804 C 55.661 -61.492 55.222 -61.161 54.879 -60.81 C 48.121 -53.896 63.208 -3.708 86.333 30.883 C 89.432 37.846 91.519 53.617 95.978 51.347 C 96.75 56.001 91.816 62.736 86.928 66.792 C 97.497 78.355 125.32 95.473 165.798 90.128 C 164.595 106.636 171.27 118.621 181.272 126.76 C 197.833 194.495 279.371 240.01 350.427 179.079 C 424.686 188.22 471.993 144.802 474.106 115.534 C 476.257 85.741 452.789 78.209 435.362 90.615 C 417.936 103.021 403.97 145.601 373.98 140.761 C 377.455 126.388 377.564 111.734 373.608 100.847 C 393.336 96.487 391.778 69.372 387.568 52.366 C 380.67 24.506 366.234 13.05 353.356 13.132 C 346.425 13.176 339.947 16.563 335.337 22.531 C 334.807 3.952 322.21 -9.672 311.234 -9.672 C 302.536 -9.672 293.532 -2.55 288.331 8.898 C 286.467 8.448 284.587 8.063 282.696 7.745 C 293.333 -16.328 291.954 -38.084 288.341 -49.494 C 282.385 -47.288 274.756 -46.244 270.441 -49.379 C 274.636 -52.105 262.144 -61.628 257.541 -67.964 C 239.72 -104.119 205.453 -141.061 194.813 -141.157 Z" style="display:inline;fill:#d7d3cd;fill-opacity:1;stroke:none;stroke-width:0.26458332px;stroke-linecap:butt;stroke-linejoin:miter;stroke-opacity:1"/>
    <path style="display:inline;opacity:1;fill:#e8e7e4;fill-opacity:1;stroke:none;stroke-width:18.89763832;stroke-linecap:round;stroke-linejoin:round;stroke-miterlimit:4;stroke-dasharray:none;stroke-dashoffset:10.01574802;stroke-opacity:1;paint-order:normal" d="M 736.303 343.975 C 735.006 343.963 733.802 344.096 732.695 344.379 C 730.898 344.839 728.988 345.648 726.969 346.781 C 688.996 368.11 614.455 503.948 603.789 576.059 C 554.766 594.643 510.184 620.761 472.512 651.852 C 404.731 625.033 249.82 621.668 212.363 643.889 C 210.371 645.071 208.714 646.322 207.418 647.648 C 181.875 673.779 238.898 863.465 326.297 994.205 C 338.013 1020.519 347.023 1114.594 328.547 1129.924 C 368.491 1173.624 473.655 1238.302 626.637 1218.104 C 613.67 1395.856 842.409 1434.851 914.766 1394.367 C 1003.851 1344.524 986.208 1244.846 942.535 1209.182 C 899.117 1173.724 803.342 1169.132 708.354 1197.58 C 708.499 1191.383 708.83 1185.191 709.348 1179.014 C 726.315 1017.583 865.195 896.737 1027.422 902.242 C 1034.717 902.49 1042.002 902.995 1049.262 903.758 C 1055.728 904.463 1062.17 905.371 1068.578 906.482 C 1108.652 815.605 1103.437 733.5 1089.795 690.418 C 1067.281 698.754 990.78 644.554 973.383 620.609 C 906.03 483.958 776.516 344.334 736.303 343.975 Z M 1176.316 840.926 C 1117.137 840.926 1054.164 928.122 1078.164 1041.033 C 1091.412 1103.352 1198.913 1133.184 1241.072 1060.16 C 1307.157 945.698 1235.496 840.925 1176.316 840.926 Z" transform="matrix(0.26458333,0,0,0.26458333,0,-232.16668)" id="path1426"/>
    <path style="fill:#f6f6f4;fill-opacity:1;stroke:none;stroke-width:0.99999994px;stroke-linecap:butt;stroke-linejoin:miter;stroke-opacity:1" d="m 1302.0488,1330.2246 c -32.3592,77.3836 -94.7608,138.3055 -172.8984,168.7988 -2.6438,13.5729 -6.3729,26.4179 -11.4141,38.127 43.9542,-5.9073 87.6269,-26.3016 127.418,-63.7793 44.9214,-42.3098 60.976,-92.462 56.8945,-143.1465 z" id="path1438" transform="matrix(0.26458333,0,0,0.26458333,0,-232.16668)"/>
    <path id="path1428" d="m 124.25111,26.91724 c 4.0032,9.893247 13.44621,15.379984 21.09191,12.254741 7.64626,-3.125404 10.59985,-13.679544 6.59631,-23.572833 -4.00354,-9.8932625 -13.44787,-15.37937041 -21.0937,-12.2537104 -0.80178,0.3312735 -1.56199,0.746518 -2.24728,1.2225294 -6.04143,4.1945097 -7.87554,13.630927 -4.34722,22.349327 z m 87.1864,-70.097517 c -6.52954,5.058553 -6.49996,15.980227 0.0662,24.393958 6.56594,8.413851 17.18209,11.1334988 23.71174,6.07445 6.52945,-5.058768 6.49938,-15.980095 -0.0667,-24.393639 -5.78635,-7.41469 -14.87537,-10.542814 -21.52978,-7.409788 -0.78387,0.371488 -1.52031,0.824977 -2.18146,1.335019 z M 79.948173,61.680033 c 10.766223,-4.395125 22.226097,-7.36721 35.826387,-8.941022 2.17824,-0.251294 1.80133,-3.518536 -0.37691,-3.267248 -13.84896,1.602609 -25.790186,4.312479 -36.789375,9.209634 -1.851205,0.82421 -0.481379,3.742157 1.335876,3.000427 z M 287.49071,-61.915724 c -9.80351,7.087736 -18.10793,16.092224 -26.42032,27.284503 -1.36923,1.768917 1.34285,3.782339 2.63971,1.95981 8.16344,-10.991458 16.41701,-19.499764 25.65937,-26.557776 1.95478,-1.492759 0.17982,-4.174882 -1.87876,-2.686537 z m -18.46228,36.605666 c -1.82375,1.291372 0.10416,3.977904 1.91663,2.670576 11.39677,-8.220722 25.63825,-15.8517 39.14266,-20.5197 2.14199,-0.740373 1.02711,-3.909674 -1.08817,-3.100658 -14.90827,5.702587 -27.96016,12.445453 -39.96978,20.949185 z M 81.363388,85.165794 c -1.746833,1.421558 0.475843,4.006064 2.142883,2.49187 10.836921,-9.31294 24.537539,-17.843406 37.339819,-23.637479 2.05356,-0.881279 0.66343,-3.955202 -1.36379,-2.990971 -13.79769,6.43793 -27.33886,14.998228 -38.128028,24.140639 z" style="display:inline;opacity:1;fill:#323232;fill-opacity:1;fill-rule:nonzero;stroke:none;stroke-width:93.29626465;stroke-linecap:round;stroke-linejoin:round;stroke-miterlimit:4;stroke-dasharray:none;stroke-dashoffset:0;stroke-opacity:1;paint-order:normal"/>
    <path style="display:inline;opacity:1;fill:#ffffff;fill-opacity:1;fill-rule:nonzero;stroke:none;stroke-width:93.2963028;stroke-linecap:round;stroke-linejoin:round;stroke-miterlimit:4;stroke-dasharray:none;stroke-dashoffset:0;stroke-opacity:1;paint-order:normal" d="m 131.44689,9.2082652 c -3.21077,2.3327558 -3.92235,6.8262828 -1.58981,10.0370748 2.33282,3.2107 6.82656,3.922613 10.03733,1.589884 3.21076,-2.332783 3.92249,-6.826698 1.58968,-10.03737 -2.33281,-3.2106733 -6.82669,-3.9221718 -10.0372,-1.5895888 z m 84.76697,-48.9364762 c -3.62545,1.614188 -5.25608,5.861731 -3.64189,9.487278 1.61421,3.625574 5.86193,5.256098 9.48769,3.64187 3.62545,-1.614189 5.25601,-5.861918 3.64178,-9.487519 -1.61419,-3.625548 -5.86182,-5.255857 -9.48758,-3.641629 z" id="path1430"/>
    <path style="display:inline;fill:#f9a6af;fill-opacity:1;stroke:none;stroke-width:38.14393997;stroke-linecap:butt;stroke-linejoin:miter;stroke-miterlimit:4;stroke-dasharray:none;stroke-opacity:1" d="m 771.20117,418.5625 c -0.39979,0.0169 -0.78698,0.0562 -1.16211,0.11914 -1.39982,0.23471 -2.73333,0.77084 -4,1.58008 -18.01496,11.50889 -22.41438,78.54665 -10.5625,128.41406 50.89138,0.0618 100.29468,9.52882 144.62696,28.33789 C 869.7916,506.99925 796.38799,417.50008 771.20117,418.5625 Z M 265.38672,712.56055 c -3.53636,0.0613 -6.55396,0.67341 -8.92578,1.90429 -0.33551,0.17367 -0.65528,0.354 -0.96485,0.5586 -0.92379,0.59361 -1.72592,1.29706 -2.40234,2.11718 -15.49253,18.77782 25.88735,129.57317 72.08594,191.80469 5.87698,-47.79759 22.38208,-95.31636 47.77343,-139.41992 -32.60236,-30.79843 -82.81189,-57.3938 -107.5664,-56.96484 z m 456.29492,153.48437 c -8.97012,0.19809 -21.93729,3.46688 -32.88672,9.83399 -17.52011,10.18782 -30.13807,27.89021 -26.55273,34.09961 3.58938,6.20748 35.80714,17.54472 51.19726,8.58593 15.3902,-8.95868 21.98596,-44.00352 18.77344,-49.5664 -1.20623,-2.08545 -5.14918,-3.07198 -10.53125,-2.95313 z m 659.13676,106.82617 c -0.8345,0.005 -1.6734,0.0602 -2.5176,0.16602 -2.449,0.30539 -4.8311,1.04749 -7.0664,2.18164 -9.7777,4.99534 -15.3725,16.96349 -13.7989,29.52145 1.9843,15.812 14.5346,27.2591 28.0391,25.5703 13.5069,-1.6887 22.8509,-15.8809 20.8711,-31.69917 -1.858,-14.82899 -13.0109,-25.8196 -25.5273,-25.74024 z m -63.8926,0.0547 c -3.2897,-0.0696 -6.568,0.57594 -9.6485,2.02149 -12.3258,5.78152 -16.8298,22.17078 -10.0527,36.60152 6.7726,14.4316 22.2543,21.4412 34.5762,15.6563 12.3226,-5.7833 16.8148,-22.1665 10.0488,-36.59962 -5.0796,-10.82197 -15.0549,-17.47079 -24.9238,-17.67969 z m -41.8574,49.30271 c -2.936,0.082 -5.82,0.6977 -8.5215,1.8887 -0.9338,0.4119 -1.8274,0.8938 -2.6856,1.4297 a 309.27915,309.27915 0 0 1 30.3125,48.9648 c 1.0291,-0.5395 2.0251,-1.1616 2.9746,-1.8808 10.8511,-8.2184 11.845,-25.1843 2.2188,-37.8907 -6.2169,-8.2079 -15.491,-12.7587 -24.2988,-12.5117 z m 82.2675,12.6934 c -6.731,0.01 -13.4692,1.4305 -19.8398,4.4199 -25.4808,11.9586 -35.4139,44.4808 -22.2051,72.6484 13.2159,28.1645 44.5885,41.3008 70.0703,29.3418 25.4812,-11.9577 35.4139,-44.4808 22.2051,-72.6484 -9.9127,-21.123 -30.0374,-33.7915 -50.2305,-33.7617 z" transform="matrix(0.26458333,0,0,0.26458333,0,-232.16668)" id="path1432"/>
    <path style="display:inline;opacity:1;fill:#e1a6f9;fill-opacity:1;stroke:none;stroke-width:15.11810875;stroke-linecap:round;stroke-linejoin:round;stroke-miterlimit:4;stroke-dasharray:none;stroke-dashoffset:10.01574802;stroke-opacity:1;paint-order:normal" d="m 1027.4219,902.24219 a 309.27915,309.27915 0 0 0 -318.07424,276.77151 309.27915,309.27915 0 0 0 -0.99414,18.5664 c 94.98871,-28.4486 190.76305,-23.8565 234.18164,11.6015 43.67282,35.6644 61.31584,135.3425 -27.76954,185.1856 -30.05172,16.8138 -87.07938,19.9009 -142.5625,5.0488 a 309.27915,309.27915 0 0 0 194.40626,116.7051 h -0.0313 c -9.93125,16.1501 -45.85195,24.4973 -84.00976,16.3711 l 65.09961,81.2422 c 34.67981,-6.6966 84.00887,-40.9273 114.88677,-96.7246 a 309.27915,309.27915 0 0 0 261.9629,-273.3379 309.27915,309.27915 0 0 0 -65.3574,-224.1563 c -4.2232,13.2998 -10.153,26.9008 -18.0879,40.6446 -42.1596,73.0238 -149.6601,43.1919 -162.9082,-19.127 -10.6669,-50.18414 -4.1433,-95.27792 11.582,-129.90429 a 309.27915,309.27915 0 0 0 -40.4844,-7.3711 309.27915,309.27915 0 0 0 -21.8398,-1.51562 z" id="path1454-7" transform="matrix(0.26458333,0,0,0.26458333,0,-232.16668)"/>
    <path style="color:#000000;font-style:normal;font-variant:normal;font-weight:normal;font-stretch:normal;font-size:medium;line-height:normal;font-family:sans-serif;font-variant-ligatures:normal;font-variant-position:normal;font-variant-caps:normal;font-variant-numeric:normal;font-variant-alternates:normal;font-feature-settings:normal;text-indent:0;text-align:start;text-decoration:none;text-decoration-line:none;text-decoration-style:solid;text-decoration-color:#000000;letter-spacing:normal;word-spacing:normal;text-transform:none;writing-mode:lr-tb;direction:ltr;text-orientation:mixed;dominant-baseline:auto;baseline-shift:baseline;text-anchor:start;white-space:normal;shape-padding:0;clip-rule:nonzero;display:inline;overflow:visible;visibility:visible;opacity:1;isolation:auto;mix-blend-mode:normal;color-interpolation:sRGB;color-interpolation-filters:linearRGB;solid-color:#000000;solid-opacity:1;vector-effect:none;fill:#914cae;fill-opacity:1;fill-rule:nonzero;stroke:none;stroke-width:5.66929102;stroke-linecap:butt;stroke-linejoin:miter;stroke-miterlimit:4;stroke-dasharray:none;stroke-dashoffset:0;stroke-opacity:1;color-rendering:auto;image-rendering:auto;shape-rendering:auto;text-rendering:auto;enable-background:accumulate" d="m 1007.502,902.56445 c -6.5964,0.18834 -13.18768,0.5875 -19.75786,1.19727 12.57116,27.00819 22.75316,55.56586 30.66796,85.11523 -64.84356,-12.31268 -134.4659,-16.77485 -203.18554,-11.48047 -7.59908,6.54802 -14.87347,13.46169 -21.80078,20.7168 77.35068,-8.55929 157.03569,-4.17831 229.93752,10.53122 7.3878,31.9463 12.2437,64.8599 14.7988,98.0352 -96.3556,-22.6732 -205.9858,-27.7357 -308.72655,-8.4649 -2.75766,6.7186 -5.27768,13.5324 -7.55469,20.4278 71.9314,-14.7481 148.13924,-17.1282 220.74219,-9.4219 -40.01786,19.3615 -79.59168,42.8288 -117.00782,69.8379 10.60154,-0.098 20.88237,0.2742 30.72461,1.1465 38.82901,-26.2415 79.64483,-48.6282 120.48633,-66.4453 l -0.0723,-0.1582 c 21.40475,3.2549 42.34773,7.403 62.66023,12.3496 0.9718,19.3709 1.1564,38.7832 0.623,58.0976 -27.8924,11.364 -55.86603,24.8163 -83.34769,40.1465 3.56789,4.8063 6.79504,10.0937 9.60743,15.7637 24.06142,-13.433 48.50126,-25.373 72.90046,-35.6641 -0.9761,18.0313 -2.5618,35.9354 -4.7696,53.5918 -2.3827,19.0521 -5.4746,37.8131 -9.2129,56.1387 -21.7636,11.6361 -43.28012,24.4649 -64.26367,38.3945 -10.19462,15.7515 -25.23727,30.2268 -46.18555,41.9473 -6.11299,3.4202 -13.36532,6.2598 -21.4707,8.5098 -21.21663,17.7521 -41.42576,36.6941 -60.25,56.7168 5.01321,3.7277 10.14053,7.3037 15.3711,10.7207 49.67171,-52.3445 109.2356,-97.3499 171.49022,-132.3379 -16.325,67.9843 -41.70323,128.7221 -73.15233,174.289 6.56553,1.5014 13.17719,2.7877 19.82617,3.8574 43.54976,-65.8109 73.81056,-157.1806 86.15826,-255.9335 14.8911,-119.0995 3.4465,-249.0632 -45.2344,-357.62505 z m 251.3066,118.04295 c -3.1617,9.7511 -7.2449,19.66 -12.3672,29.668 14.9917,75.3499 16.5076,155.2214 7.0781,230.6308 -7.785,62.2548 -23.1036,121.4118 -44.0625,172.3731 10.7543,-8.6786 20.9148,-18.0681 30.4121,-28.1055 14.8321,-43.8634 25.6889,-91.9582 31.9414,-141.9609 10.743,-85.9214 7.7562,-177.4874 -13.0019,-262.6055 z m -111.0664,80.5371 c 5.7236,56.1947 4.6781,113.4914 -2.1895,168.4219 -12.0198,96.1351 -42.0038,184.8642 -82.998,247.4434 8.4024,-1.2968 16.7464,-2.9392 25.0137,-4.9239 38.2587,-64.2726 64.9027,-149.1062 76.2968,-240.2246 6.8825,-55.0457 8.1327,-112.4109 2.6875,-168.9121 -6.3175,2e-4 -12.6268,-0.6192 -18.8105,-1.8047 z" id="path1471" transform="matrix(0.26458333,0,0,0.26458333,0,-232.16668)"/>
  </g>
</svg>